// Jest Snapshot v1, https://goo.gl/fbAQLP

exports[`<HiddenField /> renders to match snapshot 1`] = `
<HiddenField
  disabled={false}
  hideValidationMessage={false}
  name="test"
  readOnly={false}
/>
`;
