// Jest Snapshot v1, https://goo.gl/fbAQLP

exports[`<NumberInput /> renders to match snapshot 1`] = `
<NumberField
  disabled={false}
  hideValidationMessage={false}
  label="Test"
  name="test"
  readOnly={false}
/>
`;
