<svg xmlns="http://www.w3.org/2000/svg" width="15" height="15" viewBox="0 0 15 15">
    <path d="M7.364 8.45l5.297-5.296a.5.5 0 0 1 .717-.004l.7.7a.507.507 0 0 1-.003.718L7.72 10.922a.507.507 0 0 1-.717-.004l-6.35-6.35A.5.5 0 0 1 .65 3.85l.7-.7a.507.507 0 0 1 .718.004L7.364 8.45z"/>
</svg>
