<svg viewBox="0 0 24 24">
    <path d="M17.371 9.204A.622.622 0 0 0 16.907 9H7.66a.622.622 0 0 0-.465.204.676.676 0 0 0-.196.484c0 .187.065.348.196.484l4.623 4.818c.131.136.286.205.465.205a.622.622 0 0 0 .464-.205l4.623-4.818a.676.676 0 0 0 .196-.484.677.677 0 0 0-.196-.484z"/>
</svg>
