<svg xmlns="http://www.w3.org/2000/svg" width="24" height="25" viewBox="0 0 24 25">
    <g fill="#B0B0B0" fill-rule="nonzero">
        <path d="M8.484 13.644c0-.31-.244-.56-.544-.56H6.042c-.3 0-.543.25-.543.56v1.959c0 .31.243.561.543.561H7.94c.3 0 .544-.251.544-.561v-1.959zM13.226 13.644c0-.31-.243-.56-.543-.56h-1.898c-.3 0-.544.25-.544.56v1.959c0 .31.244.561.544.561h1.898c.3 0 .543-.251.543-.561v-1.959zM17.969 13.644c0-.31-.244-.56-.544-.56h-1.897c-.3 0-.544.25-.544.56v1.959c0 .31.243.561.544.561h1.897c.3 0 .544-.251.544-.561v-1.959zM8.484 18.54a.552.552 0 0 0-.544-.561H6.042c-.3 0-.543.25-.543.561v1.958c0 .31.243.561.543.561H7.94c.3 0 .544-.25.544-.56V18.54zM13.226 18.54a.552.552 0 0 0-.543-.561h-1.898c-.3 0-.544.25-.544.561v1.958c0 .31.244.561.544.561h1.898c.3 0 .543-.25.543-.56V18.54zM17.969 18.54a.552.552 0 0 0-.543-.561h-1.898c-.3 0-.544.25-.544.561v1.958c0 .31.243.561.544.561h1.898c.3 0 .543-.25.543-.56V18.54z"/>
        <path d="M21.362 2.754v2.991c0 1.353-1.063 2.442-2.372 2.442h-1.497c-1.31 0-2.386-1.09-2.386-2.442V2.743H8.36v3.002c0 1.353-1.077 2.442-2.386 2.442H4.478c-1.31 0-2.373-1.09-2.373-2.442V2.754C.961 2.789.02 3.767.02 4.969V22.5c0 1.225.962 2.23 2.148 2.23H21.3c1.184 0 2.147-1.007 2.147-2.23V4.97c0-1.202-.94-2.18-2.085-2.215zm-.695 18.656c0 .529-.416.958-.928.958H3.688c-.513 0-.928-.43-.928-.958v-9.057c0-.529.415-.958.928-.958h16.05c.513 0 .929.43.929.958v9.057z"/>
        <path d="M4.473 6.583h1.48c.45 0 .814-.375.814-.839V.84A.827.827 0 0 0 5.953 0h-1.48a.827.827 0 0 0-.814.84v4.904c0 .464.364.84.814.84zM17.474 6.583h1.48a.827.827 0 0 0 .814-.839V.84a.827.827 0 0 0-.814-.84h-1.48a.827.827 0 0 0-.813.84v4.904c0 .464.364.84.813.84z"/>
    </g>
</svg>
