// Jest Snapshot v1, https://goo.gl/fbAQLP

exports[`<Button /> match snapshot 1`] = `
<button
  className="button"
  type="button"
>
  Test
</button>
`;

exports[`<Button /> type=reset snapshot 1`] = `
<button
  className="button secondary"
  type="reset"
>
  Test
</button>
`;

exports[`<Button /> type=submit snapshot 1`] = `
<button
  className="button primary"
  type="submit"
>
  Test
</button>
`;

exports[`<IconButton /> match snapshot 1`] = `
<button
  className="icon-button"
  type="button"
>
  x
</button>
`;
