// Jest Snapshot v1, https://goo.gl/fbAQLP

exports[`<CurrencyField /> renders to match snapshot 1`] = `
<Label
  className="field currency"
  label="Currency label"
  name="currency"
>
  <FormattedInput
    autoComplete="off"
    className="input"
    defaultValue={15}
    name="currency"
    options={
      Object {
        "numeral": true,
        "numeralDecimalScale": 2,
        "numeralPositiveOnly": true,
        "numeralThousandsGroupStyle": "thousand",
        "stripLeadingZeroes": true,
      }
    }
    type="text"
    validation={[Function]}
  />
  <span
    className="currency-label"
  >
    $
  </span>
</Label>
`;
